[
  {
    "name": "Grand Hotel",
    "image": "https://i.pinimg.com/736x/ee/29/c9/ee29c9d5598fdaea83aab25fd49eb601.jpg",
    "description": "A luxurious stay with sea views and world-class amenities.",
    "price": "$200 per night",
    "location": "New York, USA"
  },
  {
    "name": "Mountain Retreat",
    "image": "https://i.pinimg.com/736x/e1/33/c1/e133c1234db59559b471640ce40ee609.jpg",
    "description": "Experience tranquility in the heart of the mountains.",
    "price": "$150 per night",
    "location": "Aspen, USA"
  },
  {
    "name": "City Center Hotel",
    "image": "https://i.pinimg.com/564x/e7/8a/68/e78a68ba8c1f9addf03b6664fb0a431b.jpg",
    "description": "Stay in the heart of the city with all attractions within reach.",
    "price": "$180 per night",
    "location": "London, UK"
  },
  {
    "name": "Beach Resort",
    "image": "https://i.pinimg.com/564x/fd/29/b7/fd29b7e812fea058530872560975194e.jpg",
    "description": "Relax at our beachside resort with beautiful sunsets.",
    "price": "$220 per night",
    "location": "Malibu, USA"
  },
  {
    "name": "Historic Inn",
    "image": "https://i.pinimg.com/564x/8c/18/74/8c1874e3ad3974a9031f53d1b45c89ae.jpg",
    "description": "Enjoy a charming stay in our historic inn.",
    "price": "$130 per night",
    "location": "Charleston, USA"
  },
  {
    "name": "Modern Loft",
    "image": "https://i.pinimg.com/736x/ee/29/c9/ee29c9d5598fdaea83aab25fd49eb601.jpg",
    "description": "Stay in a stylish loft with modern amenities.",
    "price": "$170 per night",
    "location": "Berlin, Germany"
  },
  {
    "name": "Desert Oasis",
    "image": "https://i.pinimg.com/564x/59/09/ed/5909ed3f5f3d9f40d2ef002986722d6b.jpg",
    "description": "Escape to our desert oasis with stunning views.",
    "price": "$190 per night",
    "location": "Dubai, UAE"
  },
  {
    "name": "Countryside B&B",
    "image": "https://i.pinimg.com/736x/24/82/8b/24828ba822882ba595a472544b4b032f.jpg",
    "description": "Enjoy a peaceful stay in the countryside.",
    "price": "$110 per night",
    "location": "Tuscany, Italy"
  }
]
